<svg xmlns="http://www.w3.org/2000/svg" width="214" height="61" fill="none" viewBox="0 0 214 61">
  <path fill="#fff" d="M127.206 12.845c-.115-.194-.304-.41-.511-.48-1.336-.467-2.662-.983-4.033-1.314-1.886-.458-3.816-.445-5.746-.255-2.358.229-4.628.771-6.743 1.855-1.362.697-2.517 1.662-3.623 2.732-1.688 1.631-2.957 3.465-3.543 5.752-.52 2.031-.392 3.97.939 5.65.44.555 1.115 1.084 1.776 1.264 1.617.437 3.133 0 4.424-1.075.291-.242.445-.652.666-.983-.04-.044-.075-.088-.115-.136-.59.388-1.181.352-1.714-.022-2.098-1.477-1.759-4.05-.234-5.28 2.146-1.732 5.822-.908 6.514 2.486.432 2.115-.212 4.054-1.34 5.83-.485.763-1.132 1.428-1.639 2.054 6.24-2.6 11.974-2.09 17.165 4.076.088-.268.172-.454.203-.643.339-2.181.771-4.354.983-6.545.524-5.354-.683-10.347-3.429-14.966zM97.19 16.225c.472-.736.327-1.864-.206-2.432-.406.365-.75.881-1.221 1.066-.992.383-2.261-.277-2.61-1.22-.356-.97.173-2.28 1.116-2.755 1.956-.987 4.5-.03 5.354 1.983.49 1.155.542 2.305.07 3.5 4.047-7.457 10.172-11.494 18.7-11.684-.018-.013-.079-.097-.163-.136-1.591-.794-3.12-1.794-4.795-2.323a27.135 27.135 0 00-9.153-1.252c-2.816.097-5.544.648-8.281 1.186-.172.035-.362.185-.467.33-.63.917-1.27 1.83-1.851 2.773-1.226 1.992-2.305 4.05-2.627 6.416-.216 1.574-.198 3.138.692 4.526 1.225 1.895 3.997 2.292 5.443.022zM124.985 38.014c-1.687-2.067-3.909-3.385-6.46-3.975-2.891-.67-5.408.127-7.422 2.441-1.313 1.507-1.732 3.09-1.035 4.985.286.78.784 1.308 1.555 1.467 1.014.207 1.988.053 2.786-.81-.146-.058-.23-.107-.322-.129-.63-.163-1.018-.537-1.098-1.203-.088-.753-.017-1.494.573-2.018.741-.661 2.138-.569 2.94.022.952.705.987 1.727.899 2.693-.185 2.014-1.622 4.407-4.583 4.693 2.899 1.274 4.75 3.125 4.526 6.51.286-.234.484-.366.647-.534 1.133-1.128 2.305-2.225 3.381-3.411 1.992-2.208 4.015-4.398 5.398-7.087.26-.502.159-.872-.07-1.23-.538-.828-1.093-1.652-1.715-2.414zM98.252 35.52c.797-1.587-.11-3.733-1.807-4.267-.503-.158-.983-.211-1.336.124.247.4.6.714.6 1.031.004.754-.913 1.23-1.574.868-.608-.335-1.119-.77-1.379-1.467-.295-.802-.009-2.027.617-2.428 1.401-.904 3.662-.78 4.931.268.045.04.128.036.23.062-.027-.11-.018-.18-.049-.216-.872-.956-1.736-1.921-2.64-2.856-.19-.194-.52-.366-.78-.357-.885.031-1.78.08-2.648.247-1.265.242-2.274.877-2.825 2.133-.573 1.318-.19 2.574.29 3.764.922 2.283 2.715 3.622 5.06 4.253 1.133.313 2.895-.33 3.31-1.16zM111.834 48.432c-1.432-.013-2.045 1.133-2.15 2.318-.014.141.105.291.194.512.171-.238.233-.42.361-.494.317-.185.657-.45.991-.454.428-.009.657.375.794.802.225.71-.15 1.177-.613 1.591-.471.419-1.035.657-1.675.392-.81-.335-1.295-1.018-1.718-1.736-.115-.194-.132-.44-.19-.666-.053 3.548-.612 6.92-2.613 10.07.211-.048.33-.057.432-.105 1.084-.494 2.208-.912 3.235-1.507 1.837-1.063 3.666-2.16 5.191-3.667.137-.137.291-.313.322-.49.291-1.82.202-3.604-.727-5.252-.401-.706-.93-1.31-1.834-1.314zM83.982 21.042c.987.37 1.432 1.975.754 2.71-.318.344-.767.477-1.071.15-.199-.216-.128-.683-.181-1.04l.965-.083c-.163-.86-.617-1.265-1.353-.988-.313.115-.604.45-.767.758-.687 1.296.15 3.508 2.138 3.293 1.172-.128 2.12-.666 2.926-1.455 1.287-1.26 2.737-1.604 4.433-.974-1.92-2.08-7.835-5.27-10.554-5.698-.609 1.216-.578 5.83.114 6.826 0-.608-.048-1.128.009-1.635.176-1.608 1.247-2.366 2.587-1.864zM82.942 14.846c.274.026.547.14.811.233 1.772.622 3.328 1.64 4.852 2.71.587.415 1.146.869 1.72 1.305-2.826-2.794-3.509-9.69-.851-12.78-.252.105-.437.136-.56.242-1.01.833-2.067 1.622-3.001 2.539-1.477 1.445-2.46 3.243-3.323 5.107-.19.397-.12.595.352.644zM100.402 29.561c2.301 3.632 4.302 7.408 5.822 11.458-.207-1.784.225-3.415 1.036-4.966.815-1.556 1.864-2.927 3.314-4.006-4.059 1.802-7.364.74-10.172-2.486zM91.523 20.046a57.086 57.086 0 017.708 8.021c-1.555-3.591-1.26-7.126.146-10.696-2.019 2.671-4.487 3.945-7.854 2.675z"/>
  <path fill="#fff" d="M86.405 26.921c-1.799.833-3.782.578-4.901-1.63.555 2.587 1.89 4.786 3.446 6.87 1.42 1.904 4.707 5.011 5.654 5.271-2.93-2.935-4.481-6.355-4.2-10.51zM101.011 40.94c-.066.89.414 1.243 1.194.956.665-.246.917-.793.97-1.419.066-.758-.119-1.476-.842-1.886-1.388-.789-2.759-.44-4.072.19-1.195.572-2.415.81-3.715.56-.349-.067-.688-.181-1.032-.274-.009.022-.013.044-.022.066 2.336 1.093 4.667 2.19 6.946 3.257-.088-.502-.238-1.044-.269-1.591-.022-.436.502-.895.881-.837.494.079.648.41.591.912-.212.022-.401.04-.63.066z"/>
  <path fill="#fff" d="M104.172 38.904c0 .692.07 1.278-.013 1.846-.23 1.609-.904 2.363-2.499 2.2-.194-.023-.388-.08-.582-.12 2.565 1.35 4.037 3.592 5.24 6.113.027-3.49-.917-6.747-2.146-10.04zM103.697 38.084c.246-.837-3.738-7.294-4.549-7.386 1.221 1.904 1.45 3.953.944 6.174 1.405-.119 2.661.084 3.605 1.212zM107.944 49.283c.445-.542.926-1.336 1.604-1.9.67-.555 1.534-.872 2.129-1.194-.709-.3-1.683-.573-2.508-1.089-.832-.524-1.516-1.282-2.075-1.771.273 1.913.577 4.054.85 5.954z"/>
  <g>
    <path fill="#fff" d="M9.788 19.235l-2.155-6.694-2.155 6.694H3.794L0 7.525h2.53l2.102 6.453 2.084-6.452h1.83l2.084 6.452 2.084-6.452h2.517l-3.764 11.71H9.788zM21.402 7.411c1.613 0 3.002.586 4.156 1.754 1.146 1.164 1.724 2.57 1.724 4.218 0 1.648-.573 3.058-1.724 4.217-1.154 1.168-2.538 1.754-4.155 1.754-1.622 0-3.006-.586-4.156-1.754-1.146-1.163-1.724-2.569-1.724-4.217 0-1.648.573-3.059 1.724-4.218 1.15-1.172 2.534-1.754 4.155-1.754zm0 9.475c.935 0 1.741-.339 2.411-1.018.666-.687 1-1.516 1-2.485 0-.97-.334-1.798-1-2.486-.674-.679-1.476-1.018-2.41-1.018-.944 0-1.75.34-2.424 1.018-.657.688-.988 1.516-.988 2.486 0 .97.33 1.798.988 2.485.674.679 1.48 1.018 2.424 1.018zM42.73 7.292c1.424 0 2.645.573 3.654 1.723 1.005 1.142 1.507 2.517 1.507 4.134v6.09h-2.41v-6.09c0-.947-.27-1.758-.807-2.432-.538-.675-1.185-1.01-1.943-1.01-.767 0-1.415.335-1.957 1.01-.538.674-.807 1.485-.807 2.432v6.09h-2.41v-6.09c0-.947-.27-1.758-.807-2.432-.537-.675-1.19-1.01-1.956-1.01-.758 0-1.406.335-1.944 1.01-.538.674-.806 1.485-.806 2.432v6.09h-2.411V7.527h2.41v.67c.838-.604 1.755-.904 2.75-.904 1.61 0 2.931.701 3.962 2.102 1.04-1.401 2.367-2.102 3.976-2.102zM60.293 16.706a5.674 5.674 0 01-1.913 1.816 5.644 5.644 0 01-2.966.828c-1.622 0-3.005-.586-4.156-1.754-1.146-1.163-1.723-2.57-1.723-4.217 0-1.649.573-3.059 1.723-4.218 1.146-1.168 2.534-1.754 4.156-1.754 1.613 0 3.001.586 4.156 1.754 1.146 1.164 1.723 2.57 1.723 4.218v1.009H52.22a3.265 3.265 0 003.2 2.499c1.18 0 2.097-.472 2.74-1.415l2.134 1.234zm-1.68-4.557a3.425 3.425 0 00-1.233-1.635 3.286 3.286 0 00-1.966-.64c-.723 0-1.38.212-1.965.64a3.503 3.503 0 00-1.234 1.635h6.399zM69.043 7.292c1.49 0 2.759.573 3.817 1.723 1.057 1.142 1.582 2.517 1.582 4.134v6.09H72.04v-6.09c0-.947-.295-1.758-.881-2.432-.587-.675-1.292-1.01-2.116-1.01-.82 0-1.525.335-2.115 1.01-.582.674-.873 1.485-.873 2.432v6.09h-2.41V7.527h2.41v.745a4.99 4.99 0 012.988-.979zM21.228 27.336c-.401 0-.74.119-1.027.357-.286.246-.427.537-.427.877 0 .317.097.55.286.705.216.154.723.344 1.52.564 1.094.308 1.9.648 2.42 1.027.908.66 1.362 1.604 1.362 2.838 0 1.084-.405 2.005-1.212 2.768-.806.766-1.785 1.154-2.926 1.154-1.137 0-2.111-.383-2.918-1.154-.806-.763-1.212-1.684-1.212-2.768h2.675c0 .344.141.643.428.886a1.55 1.55 0 001.027.357c.405 0 .753-.12 1.035-.357.291-.247.437-.542.437-.886 0-.322-.102-.56-.3-.714-.225-.163-.736-.353-1.547-.577-1.093-.309-1.895-.648-2.41-1.027-.9-.652-1.35-1.591-1.35-2.812 0-1.075.406-1.996 1.213-2.768.806-.762 1.78-1.141 2.917-1.141 1.146 0 2.12.379 2.927 1.142.806.766 1.212 1.692 1.212 2.767h-2.662c0-.34-.146-.63-.437-.877-.277-.242-.621-.361-1.03-.361zM35.057 24.612c1.754 0 3.256.64 4.508 1.913 1.247 1.26 1.869 2.78 1.869 4.566 0 1.789-.622 3.318-1.869 4.578-1.252 1.27-2.754 1.904-4.508 1.904a6.104 6.104 0 01-3.711-1.22v5.407H28.68V24.788h2.662v1.036a6.166 6.166 0 013.715-1.212zm0 10.295c1.013 0 1.881-.375 2.604-1.12.732-.744 1.098-1.643 1.098-2.697a3.71 3.71 0 00-1.098-2.688c-.723-.745-1.59-1.12-2.604-1.12-1.032 0-1.904.375-2.627 1.12-.723.745-1.084 1.64-1.084 2.688 0 1.054.361 1.953 1.084 2.698.718.749 1.596 1.119 2.627 1.119zM49.94 24.66c1.754 0 3.256.635 4.508 1.904 1.247 1.26 1.869 2.785 1.869 4.58 0 1.793-.622 3.318-1.869 4.578-1.252 1.27-2.755 1.904-4.508 1.904-1.759 0-3.262-.635-4.509-1.904-1.247-1.26-1.868-2.785-1.868-4.579 0-1.794.62-3.318 1.868-4.579 1.247-1.269 2.75-1.904 4.509-1.904zm0 10.282c1.013 0 1.886-.37 2.617-1.106.723-.745 1.084-1.644 1.084-2.697 0-1.053-.36-1.953-1.084-2.697-.731-.736-1.604-1.107-2.617-1.107-1.023 0-1.9.37-2.627 1.107-.714.744-1.071 1.643-1.071 2.697 0 1.053.357 1.952 1.07 2.697.728.736 1.605 1.106 2.628 1.106zM61.462 25.846a5.41 5.41 0 013.24-1.062h1.313v2.618H64.7c-.89 0-1.657.365-2.296 1.097-.63.732-.947 1.604-.947 2.627v6.363H58.84v-12.7h2.618v1.057h.004zM72.687 24.788h1.718v2.618h-1.718V37.49h-2.618V27.401h-1.706v-2.618h1.706v-4.125h2.618v4.13z"/>
    <path fill="#fff" stroke="#552D8C" stroke-miterlimit="10" stroke-width=".187" d="M1.83 25.991a.823.823 0 01.243.591c0 .233-.08.427-.243.59a.794.794 0 01-.595.243.798.798 0 01-.59-.242.805.805 0 01-.243-.591c0-.234.08-.428.243-.59a.805.805 0 01.59-.243c.234 0 .432.08.595.242zM.473 35.572h1.516v-7.364H.473v7.364zM7.276 28.058c.935 0 1.737.361 2.402 1.084.666.719.996 1.587.996 2.6v3.83H9.162v-3.83c0-.595-.185-1.106-.555-1.529-.37-.423-.815-.635-1.33-.635-.516 0-.961.212-1.332.635-.365.423-.546.934-.546 1.53v3.83H3.883v-7.365h1.516v.467a3.141 3.141 0 011.877-.617z"/>
    <g>
      <g opacity=".6">
        <path fill="#fff" d="M3.812 51.879l2.935 7.086h-1.19l-.85-2.045H2.049l-.855 2.045H0l2.948-7.086h.864zm.44 3.94l-.872-2.103-.872 2.103h1.745zM13.653 51.786c.987 0 1.83.357 2.53 1.071.7.71 1.049 1.565 1.049 2.57 0 1.004-.348 1.86-1.05 2.573-.7.714-1.542 1.071-2.529 1.071-.987 0-1.833-.357-2.534-1.07-.7-.715-1.049-1.57-1.049-2.575 0-1.004.348-1.86 1.05-2.569.704-.714 1.546-1.07 2.533-1.07zm0 6.152c.675 0 1.247-.242 1.728-.731.48-.494.718-1.084.718-1.776 0-.688-.238-1.278-.718-1.772a2.329 2.329 0 00-1.728-.731c-.674 0-1.251.242-1.727.731a2.453 2.453 0 00-.723 1.772c0 .692.242 1.287.723 1.776a2.338 2.338 0 001.727.731zM25.413 51.879v1.101h-1.525v5.985h-1.102V52.98h-1.52V51.88h4.147zM29.445 51.879H33.8v1.101h-3.253v1.882H33.8v1.102h-3.253v1.904H33.8v1.097h-4.355V51.88zM41.64 51.879l2.936 7.086h-1.19l-.85-2.045h-2.663l-.854 2.045h-1.195l2.949-7.086h.868zm.441 3.94l-.872-2.103-.873 2.103h1.745zM52.02 58.965l-2.305-3.283v3.283h-1.102V51.88h2.34c.569 0 1.032.202 1.389.612.326.37.498.816.52 1.344.022.635-.141 1.133-.49 1.494-.273.291-.66.48-1.154.573l2.15 3.063H52.02zm-1.816-4.094c.723 0 1.181-.101 1.375-.3.133-.14.194-.37.18-.687a1.068 1.068 0 00-.131-.507c-.137-.26-.362-.392-.675-.392h-1.238v1.89h.49v-.004zM60.981 51.786c.988 0 1.83.357 2.53 1.071.7.71 1.049 1.565 1.049 2.57 0 1.004-.348 1.86-1.049 2.573-.7.714-1.542 1.071-2.53 1.071-.987 0-1.833-.357-2.534-1.07-.7-.715-1.049-1.57-1.049-2.575 0-1.004.349-1.86 1.05-2.569.7-.714 1.546-1.07 2.533-1.07zm0 6.152c.675 0 1.248-.242 1.728-.731.48-.494.718-1.084.718-1.776a2.45 2.45 0 00-.718-1.772 2.33 2.33 0 00-1.728-.731c-.674 0-1.251.242-1.727.731a2.453 2.453 0 00-.723 1.772c0 .692.242 1.287.723 1.776a2.324 2.324 0 001.727.731zM71.692 51.879l2.935 7.086h-1.19l-.85-2.045h-2.663l-.855 2.045h-1.194l2.948-7.086h.869zm.44 3.94l-.872-2.103-.873 2.103h1.745z"/>
      </g>
      <g opacity=".6">
        <path fill="#fff" d="M1.36 44.316l1.833 2.944h.013v-2.944h.903v4.39h-.97l-1.824-2.94h-.013v2.94H.398v-4.39h.961zM7.863 48.94c-.035.162-.11.317-.224.458-.115.14-.283.26-.498.36-.216.098-.507.146-.873.146-.154 0-.313-.017-.476-.057a1.57 1.57 0 01-.44-.18 1.134 1.134 0 01-.331-.318.915.915 0 01-.15-.463h.868c.04.163.12.278.238.34a.88.88 0 00.41.097c.247 0 .423-.075.538-.22.114-.146.167-.336.163-.56v-.42h-.014a.86.86 0 01-.4.371c-.177.08-.358.119-.552.119-.237 0-.44-.04-.612-.128a1.157 1.157 0 01-.423-.343 1.484 1.484 0 01-.243-.512 2.345 2.345 0 01-.074-.617c0-.203.03-.4.088-.595.061-.19.145-.357.26-.502.114-.145.255-.26.427-.348a1.26 1.26 0 01.586-.128c.207 0 .393.04.551.119.159.08.291.207.397.392h.013v-.423h.829v2.975a2.586 2.586 0 01-.058.436zM6.67 47.881a.677.677 0 00.234-.199.906.906 0 00.136-.277c.031-.106.044-.216.044-.331 0-.132-.013-.256-.035-.37a.923.923 0 00-.123-.309.635.635 0 00-.23-.216.713.713 0 00-.357-.079.635.635 0 00-.538.273.792.792 0 00-.127.291c-.026.11-.04.22-.04.34 0 .114.014.229.036.339a.845.845 0 00.119.304.736.736 0 00.216.22.616.616 0 00.339.088.773.773 0 00.326-.075zM8.736 45.99c.088-.136.202-.242.343-.325.141-.084.296-.141.472-.177a2.65 2.65 0 01.524-.053c.159 0 .322.014.485.036.163.022.313.066.45.132a.877.877 0 01.33.273c.088.12.128.274.128.463v1.653c0 .145.009.282.026.41.018.132.045.229.088.295h-.885a1.502 1.502 0 01-.062-.309 1.125 1.125 0 01-.494.3c-.19.057-.379.088-.577.088-.15 0-.295-.018-.423-.057a.9.9 0 01-.344-.172.798.798 0 01-.229-.295 1.034 1.034 0 01-.084-.423c0-.181.031-.33.097-.446a.722.722 0 01.247-.277c.101-.07.216-.124.344-.159a3.88 3.88 0 01.392-.084 6.22 6.22 0 01.388-.048c.128-.013.238-.03.34-.057a.677.677 0 00.233-.106c.057-.049.084-.115.08-.207a.536.536 0 00-.045-.225.313.313 0 00-.123-.128.467.467 0 00-.177-.061 1.674 1.674 0 00-.216-.014c-.171 0-.308.035-.405.11-.097.075-.154.199-.172.37h-.872a.858.858 0 01.14-.506zm1.723 1.235c-.057.017-.115.035-.176.044-.062.009-.133.022-.199.03-.07.01-.14.018-.207.032a1.374 1.374 0 00-.194.048.66.66 0 00-.167.084.395.395 0 00-.159.335c0 .08.013.145.044.198.03.053.066.097.119.128.049.03.106.053.172.066.066.013.132.018.203.018.171 0 .304-.027.4-.088a.582.582 0 00.208-.208.636.636 0 00.083-.242c.01-.084.018-.145.018-.198v-.327a.47.47 0 01-.145.08zM17.166 48.706l-.745-2.988h-.013l-.727 2.988h-.978l-1.164-4.39h.965l.697 2.988h.013l.762-2.988h.904l.749 3.023h.013l.718-3.023h.948l-1.181 4.39h-.96zM19.548 45.99c.088-.136.203-.242.344-.325.14-.084.295-.141.471-.177a2.65 2.65 0 01.525-.053c.159 0 .321.014.485.036.163.022.313.066.45.132a.877.877 0 01.33.273c.088.12.128.274.128.463v1.653c0 .145.008.282.026.41.018.132.044.229.088.295h-.886a1.502 1.502 0 01-.062-.309 1.125 1.125 0 01-.493.3c-.19.057-.38.088-.577.088-.15 0-.296-.018-.424-.057a.9.9 0 01-.343-.172.798.798 0 01-.23-.295 1.034 1.034 0 01-.083-.423c0-.181.03-.33.097-.446a.722.722 0 01.247-.277c.101-.07.216-.124.343-.159a3.88 3.88 0 01.393-.084c.132-.022.26-.035.387-.048.128-.013.238-.03.34-.057a.677.677 0 00.233-.106c.058-.049.084-.115.08-.207a.536.536 0 00-.044-.225.288.288 0 00-.124-.128.467.467 0 00-.176-.061 1.674 1.674 0 00-.216-.014c-.172 0-.308.035-.405.11-.097.075-.155.199-.172.37h-.873a.89.89 0 01.141-.506zm1.723 1.235c-.057.017-.114.035-.176.044-.062.013-.132.022-.198.03-.066.01-.141.018-.207.032-.067.013-.133.026-.194.048a.66.66 0 00-.168.084.417.417 0 00-.114.132.396.396 0 00-.044.203c0 .08.013.145.043.198.031.053.067.097.12.128.048.03.105.053.171.066.066.013.133.018.203.018.172 0 .304-.027.401-.088a.582.582 0 00.207-.208.636.636 0 00.084-.242c.009-.084.018-.145.018-.198v-.327a.424.424 0 01-.146.08zM23.83 44.316v1.653h.018a.997.997 0 01.423-.401c.172-.084.34-.128.502-.128.234 0 .423.03.573.097a.84.84 0 01.353.264c.088.115.145.252.18.41.036.163.053.34.053.538v1.957h-.872v-1.794c0-.264-.04-.458-.124-.586-.083-.128-.229-.194-.436-.194-.238 0-.41.07-.516.211-.105.141-.158.375-.158.697v1.666h-.873v-4.39h.877zM26.629 45.035v-.719h.872v.718h-.872zm.872.489V48.7h-.872v-3.177h.872zM29.02 45.524v.44h.018a.992.992 0 01.431-.4c.177-.084.357-.129.543-.129.233 0 .423.031.572.097.15.062.27.15.353.265.088.114.145.251.18.41.036.163.054.34.054.537v1.957h-.873v-1.794c0-.264-.04-.458-.123-.586-.084-.127-.23-.194-.437-.194-.238 0-.41.071-.515.212-.106.141-.159.375-.159.696v1.666h-.873v-3.177h.829zM32.768 47.943c.132.128.322.19.564.19a.777.777 0 00.454-.133.557.557 0 00.234-.277h.767c-.124.379-.313.652-.564.815-.256.163-.56.247-.922.247-.25 0-.476-.04-.674-.12a1.423 1.423 0 01-.833-.867 1.967 1.967 0 01-.114-.675c0-.238.04-.458.119-.665.079-.203.19-.384.33-.533.146-.15.313-.27.511-.353a1.61 1.61 0 01.661-.128c.27 0 .507.053.706.159.202.105.365.246.493.423.128.176.22.379.282.604.058.224.08.462.062.705h-2.292c.014.273.084.48.216.608zm.987-1.675c-.105-.114-.264-.172-.476-.172a.742.742 0 00-.348.07.638.638 0 00-.22.177.772.772 0 00-.159.428h1.42c-.04-.22-.11-.388-.217-.503zM38.13 44.316V46h1.775v-1.684h.965v4.39h-.965V46.81H38.13v1.895h-.965v-4.39h.965zM41.74 45.99c.088-.136.202-.242.343-.325.141-.084.296-.141.472-.177.176-.035.348-.053.524-.053.159 0 .322.014.485.036.163.022.313.066.45.132a.876.876 0 01.33.273c.088.12.128.274.128.463v1.653c0 .145.009.282.026.41a.71.71 0 00.089.295H43.7a.943.943 0 01-.04-.15 1.529 1.529 0 01-.022-.159 1.125 1.125 0 01-.494.3c-.19.057-.379.088-.577.088-.15 0-.295-.018-.423-.057a.9.9 0 01-.344-.172.798.798 0 01-.229-.295.967.967 0 01-.084-.423c0-.181.031-.33.097-.446a.722.722 0 01.247-.277c.101-.07.216-.124.344-.159a3.88 3.88 0 01.392-.084c.132-.022.26-.035.388-.048.128-.013.238-.03.34-.057a.679.679 0 00.233-.106c.057-.049.083-.115.08-.207a.535.535 0 00-.045-.225.313.313 0 00-.123-.128.467.467 0 00-.177-.061 1.674 1.674 0 00-.216-.014c-.172 0-.308.035-.405.11-.097.075-.154.199-.172.37H41.6c0-.198.052-.37.14-.506zm1.727 1.235c-.057.017-.114.035-.176.044-.062.009-.132.022-.198.03-.067.01-.142.018-.208.032-.066.013-.132.026-.194.048a.66.66 0 00-.167.084.395.395 0 00-.159.335c0 .08.014.145.044.198.031.053.066.097.12.128.048.03.105.053.171.066.066.013.132.018.203.018.172 0 .304-.027.401-.088a.581.581 0 00.207-.208.637.637 0 00.084-.242c.009-.084.017-.145.017-.198v-.327a.47.47 0 01-.145.08zM46.11 44.316v2.353l1.103-1.14h1.03l-1.198 1.167 1.335 2.01h-1.057l-.873-1.42-.34.327v1.093h-.872v-4.39h.873zM48.71 45.035v-.719h.873v.718h-.872zm.873.489V48.7h-.872v-3.177h.873zM51.098 45.524v.44h.018a.992.992 0 01.432-.4c.176-.084.357-.129.542-.129.233 0 .423.031.573.097.15.062.268.15.352.265.088.114.146.251.18.41.036.163.054.34.054.537v1.957h-.873v-1.794c0-.264-.04-.458-.123-.586-.084-.127-.23-.194-.437-.194-.238 0-.41.071-.515.212-.106.141-.159.375-.159.696v1.666h-.873v-3.177h.83zM54.029 45.99c.088-.136.202-.242.343-.325.141-.084.296-.141.472-.177a2.65 2.65 0 01.524-.053c.159 0 .322.014.485.036.163.022.313.066.45.132a.876.876 0 01.33.273c.088.12.128.274.128.463v1.653c0 .145.009.282.026.41a.71.71 0 00.089.295h-.886a.944.944 0 01-.04-.15 1.53 1.53 0 01-.022-.159 1.125 1.125 0 01-.494.3c-.19.057-.379.088-.577.088-.15 0-.295-.018-.423-.057a.9.9 0 01-.344-.172.799.799 0 01-.229-.295 1.034 1.034 0 01-.084-.423c0-.181.031-.33.097-.446a.722.722 0 01.247-.277c.101-.07.216-.124.344-.159.128-.035.26-.062.392-.084.132-.022.26-.035.388-.048.128-.013.238-.03.34-.057a.678.678 0 00.233-.106c.057-.049.084-.115.08-.207a.536.536 0 00-.045-.225.288.288 0 00-.123-.128.467.467 0 00-.177-.061 1.674 1.674 0 00-.216-.014c-.171 0-.308.035-.405.11-.097.075-.154.199-.172.37h-.872c0-.198.052-.37.14-.506zm1.727 1.235c-.057.017-.114.035-.176.044-.062.009-.132.022-.198.03-.071.01-.142.018-.208.032-.066.013-.132.026-.194.048a.66.66 0 00-.167.084.416.416 0 00-.115.132.396.396 0 00-.044.203c0 .08.014.145.044.198.031.053.066.097.12.128.048.03.105.053.171.066.066.013.133.018.203.018.172 0 .304-.027.401-.088a.582.582 0 00.207-.208.636.636 0 00.084-.242c.009-.084.018-.145.018-.198v-.327a.47.47 0 01-.146.08zM58.396 44.316v2.353l1.102-1.14h1.031l-1.199 1.167 1.336 2.01h-1.058l-.873-1.42-.339.327v1.093h-.873v-4.39h.873zM60.996 45.035v-.719h.873v.718h-.873zm.873.489V48.7h-.873v-3.177h.873zM63.383 45.524v.44h.018a.993.993 0 01.432-.4c.176-.084.357-.129.542-.129.233 0 .423.031.573.097.15.067.269.15.352.265.088.114.146.251.181.41.035.163.053.34.053.537v1.957h-.873v-1.794c0-.264-.04-.458-.123-.586-.084-.127-.23-.194-.436-.194-.238 0-.41.071-.516.212-.106.141-.159.375-.159.696v1.666h-.872v-3.177h.828zM66.322 45.99c.088-.136.202-.242.343-.325.141-.084.295-.141.472-.177.176-.035.348-.053.524-.053.159 0 .322.014.485.036.163.022.313.066.45.132a.876.876 0 01.33.273c.088.12.128.274.128.463v1.653c0 .145.009.282.026.41.018.132.044.229.088.295h-.885a.933.933 0 01-.04-.15 1.53 1.53 0 01-.022-.159 1.126 1.126 0 01-.494.3c-.19.057-.379.088-.577.088-.15 0-.295-.018-.423-.057a.9.9 0 01-.344-.172.799.799 0 01-.229-.295 1.036 1.036 0 01-.084-.423c0-.181.031-.33.097-.446a.722.722 0 01.247-.277c.101-.07.216-.124.344-.159a3.88 3.88 0 01.392-.084c.132-.022.26-.035.388-.048.128-.013.238-.03.34-.057a.678.678 0 00.233-.106c.057-.049.084-.115.08-.207a.535.535 0 00-.045-.225.288.288 0 00-.123-.128.466.466 0 00-.177-.061 1.675 1.675 0 00-.216-.014c-.171 0-.308.035-.405.11-.097.075-.154.199-.172.37h-.873c0-.198.049-.37.141-.506zm1.723 1.235c-.058.017-.115.035-.177.044-.061.013-.132.022-.198.03-.07.01-.14.018-.207.032-.066.013-.132.026-.194.048a.657.657 0 00-.167.084.395.395 0 00-.159.335c0 .08.013.145.044.198.03.053.066.097.119.128.048.03.106.053.172.066.066.013.132.018.203.018.172 0 .304-.027.4-.088a.581.581 0 00.208-.208.637.637 0 00.084-.242c.008-.084.017-.145.017-.198v-.327a.469.469 0 01-.145.08zM71.459 46.427c.08-.207.19-.383.33-.529.146-.145.318-.26.516-.34.203-.078.427-.118.674-.118.252 0 .476.04.679.119.203.08.375.194.52.34.145.145.256.321.33.528.08.207.12.436.12.692 0 .256-.04.485-.12.688-.079.202-.189.378-.33.524a1.488 1.488 0 01-.52.335c-.203.08-.427.115-.679.115-.25 0-.476-.04-.674-.115a1.431 1.431 0 01-.846-.86 1.892 1.892 0 01-.12-.687c0-.256.04-.485.12-.692zm.793 1.062c.027.12.066.23.128.326a.626.626 0 00.238.23.72.72 0 00.37.088.688.688 0 00.37-.089.627.627 0 00.238-.229c.058-.097.102-.202.128-.326.026-.119.035-.247.035-.37 0-.128-.013-.251-.035-.375a.972.972 0 00-.128-.326.74.74 0 00-.238-.229.743.743 0 00-.37-.088.743.743 0 00-.37.088.788.788 0 00-.366.555 1.773 1.773 0 00-.035.375c-.005.128.009.251.035.37zM11.28 44.224H8.82v.586h2.46v-.586zM22.072 44.224h-2.459v.586h2.46v-.586zM44.213 44.224h-2.46v.586h2.46v-.586z"/>
      </g>
    </g>
  </g>
  <path fill="#fff" d="M150.534 28.342v-13.14h2.271v13.14h-2.271zm4.933 0V19.07h2.121v1.295h.319c.163-.35.457-.682.882-.995.426-.313 1.07-.469 1.934-.469.713 0 1.345.163 1.896.488.55.325.976.776 1.276 1.352.313.575.469 1.257.469 2.046v5.556h-2.158v-5.387c0-.751-.188-1.308-.563-1.671-.363-.375-.883-.563-1.559-.563-.763 0-1.364.256-1.802.77-.438.5-.657 1.22-.657 2.158v4.693h-2.158zm15.378.263c-1.201 0-2.19-.263-2.966-.788-.776-.526-1.245-1.296-1.408-2.31l1.99-.506c.088.475.244.85.469 1.126.226.276.501.47.826.582.338.113.701.17 1.089.17.588 0 1.026-.107 1.314-.32.301-.213.451-.482.451-.807a.805.805 0 00-.432-.751c-.275-.163-.701-.3-1.276-.413l-.582-.094a9.516 9.516 0 01-1.746-.507c-.526-.225-.951-.525-1.277-.9-.313-.389-.469-.877-.469-1.465 0-.901.332-1.596.995-2.084.676-.488 1.558-.732 2.647-.732 1.038 0 1.896.232 2.572.695a3.148 3.148 0 011.314 1.858l-1.99.6c-.1-.525-.319-.894-.657-1.107-.338-.225-.751-.338-1.239-.338-.501 0-.889.088-1.164.263a.849.849 0 00-.394.751c0 .326.137.57.413.732.275.163.644.282 1.107.357l.582.113a11.46 11.46 0 011.859.488c.563.2 1.007.488 1.332.863.326.375.488.882.488 1.52 0 .964-.35 1.709-1.051 2.234-.688.514-1.62.77-2.797.77zm6.033-.263V19.07h2.159v9.273h-2.159zm1.07-10.456c-.388 0-.726-.125-1.013-.375-.276-.263-.413-.607-.413-1.033 0-.425.137-.763.413-1.013a1.452 1.452 0 011.013-.395c.413 0 .751.132 1.014.395.275.25.413.588.413 1.013 0 .426-.138.77-.413 1.033-.263.25-.601.375-1.014.375zm3.374 5.857v-.281c0-.977.194-1.809.582-2.497.388-.7.908-1.233 1.558-1.596a4.21 4.21 0 012.14-.563c.876 0 1.54.157 1.99.47.463.312.801.65 1.014 1.013h.319v-1.22h2.103v11.038c0 .613-.176 1.095-.526 1.445-.35.363-.826.545-1.427.545h-6.232v-1.878h5.5c.363 0 .545-.187.545-.563v-2.684h-.32a3.638 3.638 0 01-.563.657c-.238.213-.55.394-.938.544-.388.15-.876.226-1.465.226a4.323 4.323 0 01-2.14-.545 4.158 4.158 0 01-1.558-1.595c-.388-.701-.582-1.54-.582-2.516zm4.881 2.76c.776 0 1.421-.244 1.934-.733.513-.5.769-1.195.769-2.083v-.188c0-.9-.256-1.595-.769-2.084-.501-.488-1.145-.732-1.934-.732-.776 0-1.427.244-1.952.732-.513.489-.77 1.183-.77 2.084v.188c0 .888.257 1.583.77 2.083.525.489 1.176.733 1.952.733zm7.559 1.84V15.201h2.159v5.087h.319c.1-.213.263-.425.488-.638.225-.213.519-.388.882-.526.376-.137.845-.206 1.408-.206.714 0 1.346.162 1.896.488.551.313.976.757 1.277 1.333.313.575.469 1.257.469 2.046v5.556h-2.159v-5.387c0-.751-.188-1.308-.563-1.671-.363-.375-.882-.563-1.558-.563-.763 0-1.364.256-1.802.77-.438.5-.657 1.22-.657 2.158v4.693h-2.159zm14.822 0c-.601 0-1.083-.176-1.446-.526-.35-.363-.525-.851-.525-1.465v-5.5h-2.422V19.07h2.422v-2.985h2.158v2.985h2.666v1.783h-2.666v5.144c0 .375.176.563.526.563h1.858v1.783h-2.571zm-58.05 22V37.201h2.271v5.519h5.181V37.2h2.271v13.141h-2.271v-5.556h-5.181v5.556h-2.271zm15.942.15c-.714 0-1.346-.157-1.896-.47a3.325 3.325 0 01-1.277-1.351c-.3-.589-.45-1.27-.45-2.047V41.07h2.14v5.387c0 .751.181 1.308.544 1.671.375.363.901.545 1.577.545.763 0 1.364-.25 1.802-.751.45-.5.676-1.22.676-2.16V41.07h2.14v9.273h-2.103v-1.295h-.319c-.163.338-.463.663-.901.976-.425.313-1.07.47-1.933.47zm13.482.112c-.876 0-1.552-.15-2.027-.45-.463-.313-.801-.657-1.014-1.033h-.319v1.22h-2.121v-13.14h2.159v5.03h.319c.137-.25.325-.481.563-.694.25-.212.569-.388.957-.525.401-.138.895-.207 1.483-.207.764 0 1.464.188 2.103.563.638.363 1.151.901 1.539 1.615.388.713.582 1.57.582 2.571v.3c0 1.002-.194 1.86-.582 2.573-.388.713-.907 1.257-1.558 1.633a4.144 4.144 0 01-2.084.544zm-.638-1.877c.776 0 1.42-.25 1.934-.751.513-.513.769-1.239.769-2.177v-.188c0-.951-.256-1.677-.769-2.178-.501-.5-1.146-.75-1.934-.75-.776 0-1.427.25-1.952.75-.513.5-.77 1.227-.77 2.178v.188c0 .938.257 1.664.77 2.177.525.5 1.176.75 1.952.75z"/>
</svg>
